…
``` r
# install.packages("remotes")
remotes::install_github("huizezhang-sherry/dossier")
```

## Example

This is a basic example which shows you how to solve a common problem:

``` r
library(dossier)
library(dplyr)
library(text)
(raw_df <- readr::read_csv(system.file("papers.csv", package = "dossier")))
#> # A tibble: 35 × 8
#>    paper       variable            type   model method parameter reason decision
#>    <chr>       <chr>               <chr>  <chr> <chr>  <chr>     <chr>  <chr>   
#>  1 braga       barometric_pressure param… gene… LOESS  smoothin… to mi… <NA>    
#>  2 braga       barometric_pressure spati… gene… <NA>   <NA>      to al… chosen …
#>  3 braga       humidity            param… gene… LOESS  smoothin… to mi… <NA>    
#>  4 braga       humidity            spati… gene… <NA>   <NA>      to al… chosen …
#>  5 braga       temperature         param… gene… LOESS  smoothin… to mi… <NA>    
#>  6 braga       temperature         spati… gene… <NA>   <NA>      to al… chosen …
#>  7 braga       time                param… gene… LOESS  smoothin… to el… <NA>    
#>  8 braga       time                spati… gene… <NA>   <NA>      seaso… chosen …
#>  9 katsouyanni humidity            param… gene… LOESS  smoothin… to mi… <NA>    
#> 10 katsouyanni humidity            tempo… gene… <NA>   <NA>      <NA>   same da…
#> # ℹ 25 more rows
…
# subset to papers with at least 3 decisions
summarize_num_decisions_pp(df)
#> # A tibble: 6 × 2
#>   paper       count
#>   <chr>       <dbl>
#> 1 ostro           6
#> 2 katsouyanni     5
#> 3 zanobetti       5
#> 4 peel            4
#> 5 braga           3
#> 6 schwartz        3
paper_df <- df |> filter_papers(n_count = 3)

pivot_decision_tbl_longer(paper_df)
#> # A tibble: 47 × 8
#>    paper       variable    type      model       parameter decision reason    id
#>    <chr>       <chr>       <chr>     <chr>       <chr>     <chr>    <chr>  <int>
#>  1 braga       humidity    parameter generalize… smoothin… humidit… LOESS      1
#>  2 braga       humidity    parameter generalize… smoothin… humidit… to mi…     2
#>  3 braga       temperature parameter generalize… smoothin… tempera… LOESS      3
#>  4 braga       temperature parameter generalize… smoothin… tempera… to mi…     4
#>  5 braga       time        parameter generalize… smoothin… time_pa… LOESS      5
#>  6 braga       time        parameter generalize… smoothin… time_pa… to el…     6
#>  7 katsouyanni humidity    parameter generalize… smoothin… humidit… LOESS      7
#>  8 katsouyanni humidity    parameter generalize… smoothin… humidit… to mi…     8
#>  9 katsouyanni humidity    temporal  generalize… <NA>      humidit… same …     9
#> 10 katsouyanni temperature parameter generalize… smoothin… tempera… LOESS     10
#> # ℹ 37 more rows
…
#> [0;34mProcessing batch 1/1
#> [0m
#> [0;32mCompleted layers output for texts (variable: 1/1, duration: 4.061170 secs).
#> [0m
#> [0;32mCompleted layers aggregation for word_type_embeddings. 
#> [0m
#> [0;34mCompleted layers aggregation (variable 1/1, duration: 2.610729 secs).
#> [0m
#> [0;34mCompleted layers aggregation (variable 1/1, duration: 2.439704 secs).
#> [0m
#> [0;32mMinutes from start:  0.159[0m
#> [0;30mEstimated embedding time left = 0 minutes[0m
# calculate decision similarity
(distance_decision_df <- calc_decision_similarity(paper_df, embed = embed_df))
#> # A tibble: 74 × 4
#>    paper1 paper2      decision                      dist
#>    <chr>  <chr>       <chr>                        <dbl>
#>  1 braga  katsouyanni humidity_parameter_method    1    
#>  2 braga  katsouyanni temperature_parameter_method 1    
#>  3 braga  katsouyanni time_parameter_method        1    
#>  4 braga  katsouyanni humidity_parameter_reason    0.946
#>  5 braga  katsouyanni temperature_parameter_reason 0.946
#>  6 braga  katsouyanni time_parameter_reason        0.760
#>  7 braga  ostro       humidity_parameter_method    0    
#>  8 braga  ostro       temperature_parameter_method 0    
#>  9 braga  ostro       time_parameter_method        0    
#> 10 braga  ostro       time_parameter_reason        0.728
#> # ℹ 64 more rows
…
