…
# workflow

    Code
      tbl_df
    Output
      # A tibble: 35 x 8
         paper       variable            type   model method parameter reason decision
         <chr>       <chr>               <chr>  <chr> <chr>  <chr>     <chr>  <chr>   
       1 braga       barometric_pressure param~ gene~ LOESS  smoothin~ to mi~ <NA>    
       2 braga       barometric_pressure spati~ gene~ <NA>   <NA>      to al~ chosen ~
       3 braga       humidity            param~ gene~ LOESS  smoothin~ to mi~ <NA>    
       4 braga       humidity            spati~ gene~ <NA>   <NA>      to al~ chosen ~
       5 braga       temperature         param~ gene~ LOESS  smoothin~ to mi~ <NA>    
       6 braga       temperature         spati~ gene~ <NA>   <NA>      to al~ chosen ~
       7 braga       time                param~ gene~ LOESS  smoothin~ to el~ <NA>    
       8 braga       time                spati~ gene~ <NA>   <NA>      seaso~ chosen ~
       9 katsouyanni humidity            param~ gene~ LOESS  smoothin~ to mi~ <NA>    
      10 katsouyanni humidity            tempo~ gene~ <NA>   <NA>      <NA>   same da~
      # i 25 more rows
…
---

    Code
      df
    Output
      # A tibble: 26 x 8
         paper       variable    type      model      method parameter reason decision
         <chr>       <chr>       <chr>     <chr>      <chr>  <chr>     <chr>  <chr>   
       1 braga       humidity    parameter generaliz~ LOESS  smoothin~ to mi~ <NA>    
       2 braga       temperature parameter generaliz~ LOESS  smoothin~ to mi~ <NA>    
       3 braga       time        parameter generaliz~ LOESS  smoothin~ to el~ <NA>    
       4 katsouyanni humidity    parameter generaliz~ LOESS  smoothin~ to mi~ <NA>    
       5 katsouyanni humidity    temporal  generaliz~ <NA>   <NA>      <NA>   same da~
       6 katsouyanni temperature parameter generaliz~ LOESS  smoothin~ to mi~ <NA>    
       7 katsouyanni temperature temporal  generaliz~ <NA>   <NA>      <NA>   same da~
       8 katsouyanni time        parameter generaliz~ LOESS  smoothin~ to mi~ <NA>    
       9 ostro       PM          temporal  Poisson r~ <NA>   <NA>      previ~ 2-day a~
      10 ostro       humidity    parameter Poisson r~ smoot~ smoothin~ <NA>   3       
      # i 16 more rows
…
---

    Code
      paper_df
    Output
      # A tibble: 26 x 8
         paper       variable    type      model      method parameter reason decision
         <chr>       <chr>       <chr>     <chr>      <chr>  <chr>     <chr>  <chr>   
       1 braga       humidity    parameter generaliz~ LOESS  smoothin~ to mi~ <NA>    
       2 braga       temperature parameter generaliz~ LOESS  smoothin~ to mi~ <NA>    
       3 braga       time        parameter generaliz~ LOESS  smoothin~ to el~ <NA>    
       4 katsouyanni humidity    parameter generaliz~ LOESS  smoothin~ to mi~ <NA>    
       5 katsouyanni humidity    temporal  generaliz~ <NA>   <NA>      <NA>   same da~
       6 katsouyanni temperature parameter generaliz~ LOESS  smoothin~ to mi~ <NA>    
       7 katsouyanni temperature temporal  generaliz~ <NA>   <NA>      <NA>   same da~
       8 katsouyanni time        parameter generaliz~ LOESS  smoothin~ to mi~ <NA>    
       9 ostro       PM          temporal  Poisson r~ <NA>   <NA>      previ~ 2-day a~
      10 ostro       humidity    parameter Poisson r~ smoot~ smoothin~ <NA>   3       
      # i 16 more rows
…
