Reveal the Forking Paths of Decisions in Data Analysis • dossier
…
You can install the development version from GitHub with:

# install.packages("remotes")
remotes::install_github("huizezhang-sherry/dossier")

Example

This is a basic example which shows you how to solve a common problem:

library(dossier)
library(dplyr)
library(text)
(raw_df <- readr::read_csv(system.file("papers.csv", package = "dossier")))
#> # A tibble: 35 × 8
#>    paper       variable            type   model method parameter reason decision
#>    <chr>       <chr>               <chr>  <chr> <chr>  <chr>     <chr>  <chr>   
#>  1 braga       barometric_pressure param… gene… LOESS  smoothin… to mi… <NA>    
#>  2 braga       barometric_pressure spati… gene… <NA>   <NA>      to al… chosen …
#>  3 braga       humidity            param… gene… LOESS  smoothin… to mi… <NA>    
#>  4 braga       humidity            spati… gene… <NA>   <NA>      to al… chosen …
#>  5 braga       temperature         param… gene… LOESS  smoothin… to mi… <NA>    
#>  6 braga       temperature         spati… gene… <NA>   <NA>      to al… chosen …
#>  7 braga       time                param… gene… LOESS  smoothin… to el… <NA>    
#>  8 braga       time                spati… gene… <NA>   <NA>      seaso… chosen …
#>  9 katsouyanni humidity            param… gene… LOESS  smoothin… to mi… <NA>    
#> 10 katsouyanni humidity            tempo… gene… <NA>   <NA>      <NA>   same da…
#> # ℹ 25 more rows
…
#> Processing batch 1/1
#> 
#> Completed layers output for texts (variable: 1/1, duration: 3.495635 secs).
#> 
#> Completed layers aggregation for word_type_embeddings. 
#> 
#> Completed layers aggregation (variable 1/1, duration: 2.522513 secs).
#> 
#> Completed layers aggregation (variable 1/1, duration: 2.476368 secs).
#> 
#> Minutes from start:  0.146
#> Estimated embedding time left = 0 minutes
# calculate decision similarity
(distance_decision_df <- calc_decision_similarity(paper_df, embed = embed_df))
#> # A tibble: 74 × 4
#>    paper1 paper2      decision                      dist
#>    <chr>  <chr>       <chr>                        <dbl>
#>  1 braga  katsouyanni humidity_parameter_method    1    
#>  2 braga  katsouyanni temperature_parameter_method 1    
#>  3 braga  katsouyanni time_parameter_method        1    
#>  4 braga  katsouyanni humidity_parameter_reason    0.946
#>  5 braga  katsouyanni temperature_parameter_reason 0.946
#>  6 braga  katsouyanni time_parameter_reason        0.760
#>  7 braga  ostro       humidity_parameter_method    0    
#>  8 braga  ostro       temperature_parameter_method 0    
#>  9 braga  ostro       time_parameter_method        0    
#> 10 braga  ostro       time_parameter_reason        0.728
#> # ℹ 64 more rows
…
